{
	"status": "success",
	"tags": [{
		"id": 1,
		"name": "Whitman"
	}, {
		" id": 2,
		"name": "Dickinson"
	}],
	"suggestions": [{
		"id": 3,
		"name": "English"
	}, {
		"id": 4,
		"name": "Poetry"
	}, {
		"id": 5,
		"name": "mathematics"
	}]

}